Conservation planning dataset for Victoria, Australia — data • robust.prioritizr
…
# load data
vic_study_area <- get_vic_study_area()
vic_cost <- get_vic_cost()
vic_species <- get_vic_species()
vic_pa <- get_vic_pa()
 vic_species_metadata <- get_vic_species_metadata()

# preview data
print(vic_species_metadata)
#> # A tibble: 306 × 8
#>       id name                        species class proj  timestep scenario   sum
#>    <int> <chr>                       <chr>   <chr> <chr>    <int> <chr>    <int>
#>  1     1 amphibians-Litoria_spencer… Litori… amph… GCM-…     2030 ssp126    2150
#>  2     2 amphibians-Litoria_spencer… Litori… amph… GCM-…     2050 ssp126    1879
#>  3     3 amphibians-Litoria_spencer… Litori… amph… GCM-…     2070 ssp126    1852
#>  4     4 amphibians-Litoria_spencer… Litori… amph… GCM-…     2090 ssp126    1902
#>  5     5 amphibians-Litoria_spencer… Litori… amph… GCM-…     2030 ssp245    2156
#>  6     6 amphibians-Litoria_spencer… Litori… amph… GCM-…     2050 ssp245    1807
#>  7     7 amphibians-Litoria_spencer… Litori… amph… GCM-…     2070 ssp245    1613
#>  8     8 amphibians-Litoria_spencer… Litori… amph… GCM-…     2090 ssp245    1532
#>  9     9 amphibians-Litoria_spencer… Litori… amph… GCM-…     2030 ssp370    2133
#> 10    10 amphibians-Litoria_spencer… Litori… amph… GCM-…     2050 ssp370    1735
#> # ℹ 296 more rows
…
